Tarea Nº2 - Análisis de Texto
…
#tokenize_sentences(noticia)
#tokenize_words(noticia[[3]])

FRECUENCIA DE PALABRAS

####fecuencia#######
economia_tidy %>% group_by(texto_tokenizado) %>% count(texto_tokenizado) %>% 
  arrange(desc(n))

## # A tibble: 546 x 2
## # Groups:   texto_tokenizado [546]
##    texto_tokenizado     n
##    <chr>            <int>
##  1 de                 101
##  2 el                  62
##  3 la                  59
##  4 en                  51
##  5 que                 47
##  6 las                 32
##  7 los                 28
##  8 se                  22
##  9 una                 19
## 10 del                 15
## # ... with 536 more rows

sw <- readLines("stopwordses.txt", encoding="UTF-8")
sw <- iconv(sw, to="ASCII//TRANSLIT")

####frecuencia sin stop words##########
economia_tidy %>% group_by(texto_tokenizado) %>% filter(!(texto_tokenizado %in% sw))%>% 
  count(texto_tokenizado)%>% arrange(desc(n))

## # A tibble: 412 x 2
## # Groups:   texto_tokenizado [412]
##    texto_tokenizado     n
##    <chr>            <int>
##  1 coronavirus         13
##  2 global              13
##  3 recesion             9
##  4 economico            8
##  5 crecimiento          7
##  6 economista           6
##  7 mundo                6
##  8 amenaza              5
##  9 america              5
## 10 autor                5
## # ... with 402 more rows
…
#tokenize_sentences(noticia)
#tokenize_words(noticia[[3]])

FRECUENCIA DE PALABRAS

####fecuencia#######
economia_tidy %>% group_by(texto_tokenizado) %>% count(texto_tokenizado) %>% 
  arrange(desc(n))

## # A tibble: 546 x 2
## # Groups:   texto_tokenizado [546]
##    texto_tokenizado     n
##    <chr>            <int>
##  1 de                 101
##  2 el                  62
##  3 la                  59
##  4 en                  51
##  5 que                 47
##  6 las                 32
##  7 los                 28
##  8 se                  22
##  9 una                 19
## 10 del                 15
## # ... with 536 more rows

sw <- readLines("stopwordses_modificado.txt", encoding="UTF-8")
sw <- iconv(sw, to="ASCII//TRANSLIT")

####frecuencia sin stop words##########
economia_tidy %>% group_by(texto_tokenizado) %>% filter(!(texto_tokenizado %in% sw))%>% 
  count(texto_tokenizado)%>% arrange(desc(n))

## # A tibble: 397 x 2
## # Groups:   texto_tokenizado [397]
##    texto_tokenizado     n
##    <chr>            <int>
##  1 coronavirus         13
##  2 global              13
##  3 recesion             9
##  4 economico            8
##  5 crecimiento          7
##  6 economista           6
##  7 mundo                6
##  8 amenaza              5
##  9 america              5
## 10 impacto              5
## # ... with 387 more rows
…
